;01030101     8BFF           MOV EDI,EDI
;01030103     55             PUSH EBP
;->01030101     C2 0400        RETN 4
02f501,8bff55,c20400

;01038DB5     8BFF           MOV EDI,EDI
;->01038DB5     C3             RETN
;  01038DB6     90             NOP
0381b5,8bff,c390

;0101F709     74 02          JE SHORT winlogon.0101F70D
;->0101F709     EB 02          JMP SHORT winlogon.0101F70D
01eb09,7402,eb02